TRABALHO FINAL FIP 606 - ABNER, DAIANE E MARIA IZABEL
…
Importação dos dados

Como os dados de severidade estão localizados em uma planilha do Excel, para realizar a importação dos dados necessitou-se utilizar a função read_excel( ) do pacote readxl. O data frame foi atribuído ao objeto denominado dados.

dados <- read_excel("dados.xlsx")

dados

# A tibble: 240 × 5
   irrigation_type moisture      block  time   sev
   <chr>           <chr>         <dbl> <dbl> <dbl>
 1 Drip            High moisture     1     0 0.011
 2 Drip            High moisture     2     0 0.011
 3 Drip            High moisture     3     0 0.011
 4 Drip            High moisture     1     7 0.034
 5 Drip            High moisture     2     7 0.04 
 6 Drip            High moisture     3     7 0.036
 7 Drip            High moisture     1    14 0.114
 8 Drip            High moisture     2    14 0.109
 9 Drip            High moisture     3    14 0.097
10 Drip            High moisture     1    21 0.126
# ℹ 230 more rows
…
Organização dos dados

Ao examinar os dados, observou-se que os tratamentos (irrigation_type: Drip, MS, Furrow, MS Above canopy, Overhead) não estão igualmente distribuídos entre as duas condições de umidade (moisture: high e moderate). Dessa forma para a análise visual dos dados resolveu-se dividi-los de acordo com seus níveis de umidade.

# Subconjunto para irrigação com umidade moderada
dados_moderate <- dados %>% filter(moisture == "Moderate moisture")

# Subconjunto para irrigação com umidade alta
dados_high <- dados %>% filter(moisture == "High moisture")

dados_moderate

# A tibble: 120 × 5
   irrigation_type moisture          block  time   sev
   <chr>           <chr>             <dbl> <dbl> <dbl>
 1 MS              Moderate moisture     1     0 0.009
 2 MS              Moderate moisture     2     0 0.009
 3 MS              Moderate moisture     3     0 0.009
 4 MS              Moderate moisture     1     7 0.028
 5 MS              Moderate moisture     2     7 0.025
 6 MS              Moderate moisture     3     7 0.021
 7 MS              Moderate moisture     1    14 0.077
 8 MS              Moderate moisture     2    14 0.08 
 9 MS              Moderate moisture     3    14 0.071
10 MS              Moderate moisture     1    21 0.056
# ℹ 110 more rows

dados_high

# A tibble: 120 × 5
   irrigation_type moisture      block  time   sev
   <chr>           <chr>         <dbl> <dbl> <dbl>
 1 Drip            High moisture     1     0 0.011
 2 Drip            High moisture     2     0 0.011
 3 Drip            High moisture     3     0 0.011
 4 Drip            High moisture     1     7 0.034
 5 Drip            High moisture     2     7 0.04 
 6 Drip            High moisture     3     7 0.036
 7 Drip            High moisture     1    14 0.114
 8 Drip            High moisture     2    14 0.109
 9 Drip            High moisture     3    14 0.097
10 Drip            High moisture     1    21 0.126
# ℹ 110 more rows
…
A análise foi conduzida com o pacote epifitter (fornece funções para análise do cálculo da AACPD), especificamente por meio da função audpc(). A função audpc() calcula a Área Abaixo da Curva de Progresso da Doença com base: na severidade da doença (sev) multiplicada por 100 (para expressar em %), e no tempo de avaliação (time). O resultado é armazenado em aacpd_resultado, que contém uma linha para cada combinação de tratamento e bloco, com o valor correspondente da AACPD.

library(epifitter)
library(dplyr)

# 3. Calcular a AACPD para cada combinação de tratamento e bloco
aacpd_resultado <- dados2 %>%
  group_by(tratamento, block) %>%
  summarise(AACPD = audpc(sev*100, time), .groups = "drop")

# 4. Visualizar os resultados
print(aacpd_resultado)

# A tibble: 24 × 3
   tratamento                 block AACPD
   <chr>                      <dbl> <dbl>
 1 Drip + High moisture           1 1300.
 2 Drip + High moisture           2 1388.
 3 Drip + High moisture           3 1329.
 4 Furrow + Moderate moisture     1 1353.
 5 Furrow + Moderate moisture     2 1400.
 6 Furrow + Moderate moisture     3 1387.
 7 MS + High moisture             1  806.
 8 MS + High moisture             2  924.
 9 MS + High moisture             3  826.
10 MS + Moderate moisture         1 1052.
# ℹ 14 more rows
…
